<svg xmlns="http://www.w3.org/2000/svg" fill="none" viewBox="56.44 0.02 110.25 29.97">
<path d="M69.1212 0.0878906C68.0372 0.333984 67.1583 0.878906 66.5196 1.7168C66.127 2.23242 65.8809 2.74805 65.7169 3.39844C65.5411 4.0957 65.5763 5.09766 65.8048 5.77148C66.297 7.22461 67.5157 8.35547 68.9923 8.71289C69.2266 8.77148 69.6309 8.80664 70.0001 8.80664C70.3692 8.80664 70.7735 8.77148 71.0079 8.71289C72.4845 8.35547 73.6974 7.23047 74.1954 5.77148C74.4239 5.10352 74.4591 4.0957 74.2833 3.39258C74.1309 2.76562 73.7794 2.0625 73.3985 1.59961C72.8477 0.9375 71.9806 0.375 71.1427 0.146484C70.6446 0.0117188 69.5958 -0.0175781 69.1212 0.0878906ZM70.879 4.39453V5.27344H70.0001H69.1212V4.39453V3.51562H70.0001H70.879V4.39453Z" fill="#1144D2"/>
<path d="M59.9512 5.35548C58.3047 5.73634 57.0157 7.01368 56.5469 8.73048C56.4063 9.25196 56.4004 10.3242 56.5411 10.8399C57.2559 13.4531 60.3204 14.8828 62.7168 13.7109C64.2989 12.9316 65.3594 11.0801 65.2305 9.29884C65.1075 7.51759 63.795 5.97071 61.961 5.44923C61.4102 5.28517 60.4375 5.24415 59.9512 5.35548ZM61.9844 9.36915C62.0196 9.39845 61.293 10.7227 61.17 10.8457C61.1172 10.8926 59.67 10.0781 59.6758 10.002C59.6758 9.97852 59.8633 9.62696 60.0977 9.22852L60.5137 8.50196L61.2286 8.91798C61.6211 9.14649 61.961 9.34571 61.9844 9.36915Z" fill="#1144D2"/>
<path d="M78.4083 5.35546C76.6622 5.6953 75.2912 6.97851 74.881 8.66015C74.7228 9.29882 74.7521 10.2773 74.9455 10.9277C75.1915 11.748 75.4611 12.1992 76.0646 12.8086C76.6388 13.3887 77.1603 13.6992 77.9396 13.9453C80.2072 14.6426 82.7677 13.2187 83.4122 10.8984C83.8869 9.20507 83.3419 7.48241 81.9826 6.32812C81.0275 5.51952 79.5802 5.12694 78.4083 5.35546ZM79.9552 9.29882L80.3654 10.0195L80.2365 10.1016C80.1662 10.1484 79.8322 10.3418 79.4923 10.541C79.0177 10.8105 78.8654 10.8808 78.8126 10.8223C78.7365 10.7344 78.0333 9.52147 78.0158 9.43944C77.9982 9.36327 79.4455 8.49608 79.4982 8.54882C79.5216 8.5664 79.7267 8.90624 79.9552 9.29882Z" fill="#1144D2"/>
<path d="M68.9277 10.7285C66.9941 11.2031 65.6055 12.9844 65.6055 14.9883C65.6055 15.7031 65.7344 16.2539 66.0449 16.9043C66.502 17.8535 67.1465 18.498 68.0957 18.9551C68.7461 19.2656 69.2969 19.3945 70.0117 19.3945C72.0449 19.3945 73.8086 18 74.2832 16.0195C74.3887 15.5801 74.4004 15.3809 74.377 14.7949C74.3301 13.7812 74.0547 13.0254 73.4277 12.2344C72.4082 10.9336 70.5801 10.3184 68.9277 10.7285ZM70.8789 15V15.8789H70H69.1211V15V14.1211H70H70.8789V15Z" fill="#1144D2"/>
<path d="M59.9453 15.9609C59.1016 16.1543 58.4043 16.5351 57.7832 17.1387C56.8457 18.0586 56.4297 19.0547 56.4414 20.3613C56.4414 20.9941 56.4648 21.123 56.6289 21.6152C57.0508 22.8457 57.7539 23.666 58.8672 24.2285C61.3867 25.5 64.4512 24.082 65.1191 21.3398C65.248 20.8008 65.248 19.7812 65.1133 19.248C65.0547 19.0195 64.8906 18.5918 64.7441 18.2871C64.5215 17.8183 64.3984 17.6543 63.9414 17.1972C63.4844 16.7344 63.3262 16.6172 62.8516 16.3828C62.5469 16.2363 62.1367 16.0722 61.9434 16.0195C61.4512 15.8906 60.3906 15.8613 59.9453 15.9609ZM61.6211 19.8984C61.8437 20.2851 62.0078 20.6133 61.9844 20.6308C61.9609 20.6543 61.6211 20.8535 61.2285 21.082L60.5137 21.498L60.0977 20.7715C59.8633 20.373 59.6758 20.0215 59.6758 19.998C59.6699 19.9219 61.1172 19.1074 61.1699 19.1601C61.1992 19.1836 61.4043 19.5176 61.6211 19.8984Z" fill="#1144D2"/>
<path d="M78.379 15.9199C77.9806 15.9844 77.2775 16.2715 76.8908 16.5234C75.2443 17.6016 74.4122 19.6523 74.8927 21.4688C75.1974 22.6348 76.0822 23.666 77.2365 24.2285C78.0158 24.6094 78.3908 24.6914 79.2579 24.6914C79.8908 24.6914 80.0548 24.668 80.4591 24.5332C81.631 24.1465 82.6095 23.2559 83.1486 22.0781C83.4767 21.375 83.5587 20.9824 83.5587 20.1563C83.5529 19.5293 83.5353 19.3594 83.4005 18.9551C82.797 17.127 81.0158 15.8613 79.0822 15.8848C78.7775 15.8906 78.4611 15.9082 78.379 15.9199ZM79.9318 19.7168C80.1603 19.8516 80.3361 19.9805 80.3361 20.0039C80.3302 20.0273 80.1368 20.373 79.9083 20.7715L79.4865 21.498L78.7423 21.0586C78.3322 20.8184 78.004 20.5957 78.0158 20.5605C78.0333 20.502 78.549 19.582 78.7716 19.2305L78.8536 19.0957L79.1876 19.2891C79.3693 19.3945 79.7091 19.5879 79.9318 19.7168Z" fill="#1144D2"/>
<path d="M69.5313 21.1934C67.7794 21.4219 66.3614 22.5762 65.8048 24.2285C65.5763 24.9023 65.5411 25.9043 65.7169 26.6016C66.2501 28.7109 68.1192 30.1113 70.2345 29.9824C70.9024 29.9414 71.3536 29.8242 71.9044 29.5605C73.1056 28.9805 73.9493 27.9258 74.2833 26.6074C74.4708 25.875 74.4239 24.8965 74.1778 24.1816C73.92 23.4551 73.6798 23.0742 73.0763 22.4707C72.6309 22.0195 72.461 21.8965 71.9923 21.6621C71.6876 21.5156 71.2657 21.3516 71.0548 21.3047C70.6329 21.2051 69.8477 21.1465 69.5313 21.1934ZM70.879 25.6055V26.4844H70.0001H69.1212V25.6055V24.7266H70.0001H70.879V25.6055Z" fill="#1144D2"/>
<path d="M98.7404 26.3C93.1904 26.3 89.7154 22.625 89.7154 16.775C89.7154 11 93.3904 7.2 98.9154 7.2C103.54 7.2 106.865 9.85 107.44 14H103.165C102.615 12.15 101.04 11.1 98.8154 11.1C95.8154 11.1 93.9904 13.225 93.9904 16.75C93.9904 20.225 95.8404 22.4 98.8154 22.4C101.09 22.4 102.765 21.275 103.265 19.45H107.465C106.815 23.575 103.365 26.3 98.7404 26.3ZM113.23 26.325C110.58 26.325 108.93 24.775 108.93 22.325C108.93 20.025 110.555 18.6 113.555 18.375L117.055 18.1V17.9C117.055 16.675 116.305 16.025 114.93 16.025C113.305 16.025 112.43 16.65 112.43 17.775H109.23C109.23 14.95 111.555 13.1 115.13 13.1C118.755 13.1 120.805 15.125 120.805 18.7V26H117.405L117.155 24.35C116.755 25.5 115.105 26.325 113.23 26.325ZM114.58 23.475C116.055 23.475 117.08 22.75 117.08 21.325V20.65L115.13 20.825C113.455 20.975 112.855 21.35 112.855 22.15C112.855 23.05 113.405 23.475 114.58 23.475ZM126.628 26L121.753 13.5H125.903L127.428 17.875C128.053 19.7 128.553 21.275 128.653 21.85C128.803 21.125 129.353 19.5 129.978 17.875L131.653 13.5H135.653L130.428 26H126.628ZM139.138 11.55C137.913 11.55 136.938 10.575 136.938 9.35C136.938 8.125 137.913 7.175 139.138 7.175C140.338 7.175 141.313 8.125 141.313 9.35C141.313 10.575 140.338 11.55 139.138 11.55ZM137.238 26V13.5H141.088V26H137.238ZM147.751 26.325C145.101 26.325 143.451 24.775 143.451 22.325C143.451 20.025 145.076 18.6 148.076 18.375L151.576 18.1V17.9C151.576 16.675 150.826 16.025 149.451 16.025C147.826 16.025 146.951 16.65 146.951 17.775H143.751C143.751 14.95 146.076 13.1 149.651 13.1C153.276 13.1 155.326 15.125 155.326 18.7V26H151.926L151.676 24.35C151.276 25.5 149.626 26.325 147.751 26.325ZM149.101 23.475C150.576 23.475 151.601 22.75 151.601 21.325V20.65L149.651 20.825C147.976 20.975 147.376 21.35 147.376 22.15C147.376 23.05 147.926 23.475 149.101 23.475ZM166.688 13.5V17.125H165.463C163.263 17.125 161.938 18.1 161.938 20.575V26H158.088V13.525H161.713L161.913 15.375C162.438 14.15 163.538 13.325 165.213 13.325C165.663 13.325 166.163 13.375 166.688 13.5Z" fill="#1144D2"/>
</svg>